[gd_scene load_steps=7 format=2]

[ext_resource path="res://menu/game_over/game_over.gd" type="Script" id=1]
[ext_resource path="res://menu/game_over/game_over.png" type="Texture" id=2]
[ext_resource path="res://menu/game_over/button_replay.png" type="Texture" id=3]
[ext_resource path="res://menu/game_over/button_replay_hover.png" type="Texture" id=4]
[ext_resource path="res://menu/game_over/button_quit.png" type="Texture" id=5]
[ext_resource path="res://menu/game_over/button_quit_hover.png" type="Texture" id=6]

[node name="Game_over" type="Control"]
anchor_right = 1.0
anchor_bottom = 1.0
script = ExtResource( 1 )
__meta__ = {
"_edit_use_anchors_": false
}

[node name="TextureRect" type="TextureRect" parent="."]
margin_right = 1280.0
margin_bottom = 720.0
texture = ExtResource( 2 )
expand = true

[node name="TextureButton_Replay" type="TextureButton" parent="."]
margin_left = 473.375
margin_top = 469.0
margin_right = 584.375
margin_bottom = 516.0
toggle_mode = true
texture_normal = ExtResource( 3 )
texture_hover = ExtResource( 4 )
expand = true
stretch_mode = 4
__meta__ = {
"_edit_use_anchors_": false
}

[node name="TextureButton_Quit" type="TextureButton" parent="."]
margin_left = 716.744
margin_top = 469.0
margin_right = 834.744
margin_bottom = 516.0
texture_normal = ExtResource( 5 )
texture_hover = ExtResource( 6 )
expand = true
stretch_mode = 4
__meta__ = {
"_edit_use_anchors_": false
}
[connection signal="button_down" from="TextureButton_Replay" to="." method="_on_TextureButton_Replay_button_down"]
[connection signal="pressed" from="TextureButton_Replay" to="." method="_on_TextureButton_Replay_pressed"]
[connection signal="button_down" from="TextureButton_Quit" to="." method="_on_TextureButton_Quit_button_down"]
